…
# Summarise homicides

homicide_data %>%
  group_by(city_state) %>%
  summarise(
    total_homicides = n(),
    unsolved_homicides = sum(disposition %in% c("Closed without arrest", "Open/No arrest")),
    solved_homicides = sum(disposition == "Closed by arrest")
  )
```

    ## # A tibble: 51 × 4
    ##    city_state      total_homicides unsolved_homicides solved_homicides
    ##    <chr>                     <int>              <int>            <int>
    ##  1 Albuquerque, NM             378                146              232
    ##  2 Atlanta, GA                 973                373              600
    ##  3 Baltimore, MD              2827               1825             1002
    ##  4 Baton Rouge, LA             424                196              228
    ##  5 Birmingham, AL              800                347              453
    ##  6 Boston, MA                  614                310              304
    ##  7 Buffalo, NY                 521                319              202
    ##  8 Charlotte, NC               687                206              481
    ##  9 Chicago, IL                5535               4073             1462
    ## 10 Cincinnati, OH              694                309              385
    ## # ℹ 41 more rows
…
    ## Warning: There was 1 warning in `mutate()`.
    ## ℹ In argument: `test_results = map2(unsolved, n, ~prop.test(x = .x, n = .y))`.
    ## Caused by warning in `prop.test()`:
    ## ! Chi-squared approximation may be incorrect

``` r
# Proportion of unsolved homicides for all cities

unsolved_prop_cities
```

    ## # A tibble: 51 × 4
    ##    city_state      estimate conf.low conf.high
    ##    <chr>              <dbl>    <dbl>     <dbl>
    ##  1 Albuquerque, NM    0.386    0.337     0.438
    ##  2 Atlanta, GA        0.383    0.353     0.415
    ##  3 Baltimore, MD      0.646    0.628     0.663
    ##  4 Baton Rouge, LA    0.462    0.414     0.511
    ##  5 Birmingham, AL     0.434    0.399     0.469
    ##  6 Boston, MA         0.505    0.465     0.545
    ##  7 Buffalo, NY        0.612    0.569     0.654
    ##  8 Charlotte, NC      0.300    0.266     0.336
    ##  9 Chicago, IL        0.736    0.724     0.747
    ## 10 Cincinnati, OH     0.445    0.408     0.483
    ## # ℹ 41 more rows
…
